[
  {
    "page": 1,
    "pages": 6,
    "per_page": 50,
    "total": 266,
    "sourceid": "2",
    "lastupdated": "2025-06-05"
  },
  [
    {
      "indicator": {
        "id": "NY.GDP.MKTP.CD",
        "value": "GDP (current US$)"
      },
      "country": {
        "id": "ZH",
        "value": "Africa Eastern and Southern"
      },
      "countryiso3code": "AFE",
      "date": "2022",
      "value": 1191423176242.96,
      "unit": "",
      "obs_status": "",
      "decimal": 0
    },
    {
      "indicator": {
        "id": "NY.GDP.MKTP.CD",
        "value": "GDP (current US$)"
      },
      "country": {
        "id": "ZI",
        "value": "Africa Western and Central"
      },
      "countryiso3code": "AFW",
      "date": "2022",
      "value": 883973910898.854,
      "unit": "",
      "obs_status": "",
      "decimal": 0
    },
    {
      "indicator": {
        "id": "NY.GDP.MKTP.CD",
        "value": "GDP (current US$)"
      },
      "country": {
        "id": "1A",
        "value": "Arab World"
      },
      "countryiso3code": "ARB",
      "date": "2022",
      "value": 3609805711776.49,
      "unit": "",
      "obs_status": "",
      "decimal": 0
    },
    {
      "indicator": {
        "id": "NY.GDP.MKTP.CD",
        "value": "GDP (current US$)"
      },
      "country": {
        "id": "S3",
        "value": "Caribbean small states"
      },
      "countryiso3code": "CSS",
      "date": "2022",
      "value": 48740490013.1088,
      "unit": "",
      "obs_status": "",
      "decimal": 0
    },
    {
      "indicator": {
        "id": "NY.GDP.MKTP.CD",
        "value": "GDP (current US$)"
      },
      "country": {
        "id": "B8",
        "value": "Central Europe and the Baltics"
      },
      "countryiso3code": "CEB",
      "date": "2022",
      "value": 1955925827813.51,
      "unit": "",
      "obs_status": "",
      "decimal": 0
    },
    {
      "indicator": {
        "id": "NY.GDP.MKTP.CD",
        "value": "GDP (current US$)"
      },
      "country": {
        "id": "V2",
        "value": "Early-demographic dividend"
      },
      "countryiso3code": "EAR",
      "date": "2022",
      "value": 14147623772391.9,
      "unit": "",
      "obs_status": "",
      "decimal": 0
    },
    {
      "indicator": {
        "id": "NY.GDP.MKTP.CD",
        "value": "GDP (current US$)"
      },
      "country": {
        "id": "Z4",
        "value": "East Asia & Pacific"
      },
      "countryiso3code": "EAS",
      "date": "2022",
      "value": 30673443320595.9,
      "unit": "",
      "obs_status": "",
      "decimal": 0
    },
    {
      "indicator": {
        "id": "NY.GDP.MKTP.CD",
        "value": "GDP (current US$)"
      },
      "country": {
        "id": "4E",
        "value": "East Asia & Pacific (excluding high income)"
      },
      "countryiso3code": "EAP",
      "date": "2022",
      "value": 21124945071215.4,
      "unit": "",
      "obs_status": "",
      "decimal": 0
    },
    {
      "indicator": {
        "id": "NY.GDP.MKTP.CD",
        "value": "GDP (current US$)"
      },
      "country": {
        "id": "T4",
        "value": "East Asia & Pacific (IDA & IBRD countries)"
      },
      "countryiso3code": "TEA",
      "date": "2022",
      "value": 21098845523342.9,
      "unit": "",
      "obs_status": "",
      "decimal": 0
    },
    {
      "indicator": {
        "id": "NY.GDP.MKTP.CD",
        "value": "GDP (current US$)"
      },
      "country": {
        "id": "XC",
        "value": "Euro area"
      },
      "countryiso3code": "EMU",
      "date": "2022",
      "value": 14452048668851,
      "unit": "",
      "obs_status": "",
      "decimal": 0
    },
    {
      "indicator": {
        "id": "NY.GDP.MKTP.CD",
        "value": "GDP (current US$)"
      },
      "country": {
        "id": "Z7",
        "value": "Europe & Central Asia"
      },
      "countryiso3code": "ECS",
      "date": "2022",
      "value": 25662572829777.2,
      "unit": "",
      "obs_status": "",
      "decimal": 0
    },
    {
      "indicator": {
        "id": "NY.GDP.MKTP.CD",
        "value": "GDP (current US$)"
      },
      "country": {
        "id": "7E",
        "value": "Europe & Central Asia (excluding high income)"
      },
      "countryiso3code": "ECA",
      "date": "2022",
      "value": 1817978495944.86,
      "unit": "",
      "obs_status": "",
      "decimal": 0
    },
    {
      "indicator": {
        "id": "NY.GDP.MKTP.CD",
        "value": "GDP (current US$)"
      },
      "country": {
        "id": "T7",
        "value": "Europe & Central Asia (IDA & IBRD countries)"
      },
      "countryiso3code": "TEC",
      "date": "2022",
      "value": 5237811052696.8,
      "unit": "",
      "obs_status": "",
      "decimal": 0
    },
    {
      "indicator": {
        "id": "NY.GDP.MKTP.CD",
        "value": "GDP (current US$)"
      },
      "country": {
        "id": "EU",
        "value": "European Union"
      },
      "countryiso3code": "EUU",
      "date": "2022",
      "value": 16995332000257.8,
      "unit": "",
      "obs_status": "",
      "decimal": 0
    },
    {
      "indicator": {
        "id": "NY.GDP.MKTP.CD",
        "value": "GDP (current US$)"
      },
      "country": {
        "id": "F1",
        "value": "Fragile and conflict affected situations"
      },
      "countryiso3code": "FCS",
      "date": "2022",
      "value": 1964841634349.73,
      "unit": "",
      "obs_status": "",
      "decimal": 0
    },
    {
      "indicator": {
        "id": "NY.GDP.MKTP.CD",
        "value": "GDP (current US$)"
      },
      "country": {
        "id": "XE",
        "value": "Heavily indebted poor countries (HIPC)"
      },
      "countryiso3code": "HPC",
      "date": "2022",
      "value": 983601535350.123,
      "unit": "",
      "obs_status": "",
      "decimal": 0
    },
    {
      "indicator": {
        "id": "NY.GDP.MKTP.CD",
        "value": "GDP (current US$)"
      },
      "country": {
        "id": "XD",
        "value": "High income"
      },
      "countryiso3code": "",
      "date": "2022",
      "value": 64961263426035.5,
      "unit": "",
      "obs_status": "",
      "decimal": 0
    },
    {
      "indicator": {
        "id": "NY.GDP.MKTP.CD",
        "value": "GDP (current US$)"
      },
      "country": {
        "id": "XF",
        "value": "IBRD only"
      },
      "countryiso3code": "IBD",
      "date": "2022",
      "value": 37711987599830.9,
      "unit": "",
      "obs_status": "",
      "decimal": 0
    },
    {
      "indicator": {
        "id": "NY.GDP.MKTP.CD",
        "value": "GDP (current US$)"
      },
      "country": {
        "id": "ZT",
        "value": "IDA & IBRD total"
      },
      "countryiso3code": "IBT",
      "date": "2022",
      "value": 40596809224874,
      "unit": "",
      "obs_status": "",
      "decimal": 0
    },
    {
      "indicator": {
        "id": "NY.GDP.MKTP.CD",
        "value": "GDP (current US$)"
      },
      "country": {
        "id": "XH",
        "value": "IDA blend"
      },
      "countryiso3code": "IDB",
      "date": "2022",
      "value": 1208339576445.76,
      "unit": "",
      "obs_status": "",
      "decimal": 0
    },
    {
      "indicator": {
        "id": "NY.GDP.MKTP.CD",
        "value": "GDP (current US$)"
      },
      "country": {
        "id": "XI",
        "value": "IDA only"
      },
      "countryiso3code": "IDX",
      "date": "2022",
      "value": 1677113352089.33,
      "unit": "",
      "obs_status": "",
      "decimal": 0
    },
    {
      "indicator": {
        "id": "NY.GDP.MKTP.CD",
        "value": "GDP (current US$)"
      },
      "country": {
        "id": "XG",
        "value": "IDA total"
      },
      "countryiso3code": "IDA",
      "date": "2022",
      "value": 2885452928535.09,
      "unit": "",
      "obs_status": "",
      "decimal": 0
    },
    {
      "indicator": {
        "id": "NY.GDP.MKTP.CD",
        "value": "GDP (current US$)"
      },
      "country": {
        "id": "V3",
        "value": "Late-demographic dividend"
      },
      "countryiso3code": "LTE",
      "date": "2022",
      "value": 28079439418908.5,
      "unit": "",
      "obs_status": "",
      "decimal": 0
    },
    {
      "indicator": {
        "id": "NY.GDP.MKTP.CD",
        "value": "GDP (current US$)"
      },
      "country": {
        "id": "ZJ",
        "value": "Latin America & Caribbean"
      },
      "countryiso3code": "LCN",
      "date": "2022",
      "value": 6344871239270.21,
      "unit": "",
      "obs_status": "",
      "decimal": 0
    },
    {
      "indicator": {
        "id": "NY.GDP.MKTP.CD",
        "value": "GDP (current US$)"
      },
      "country": {
        "id": "XJ",
        "value": "Latin America & Caribbean (excluding high income)"
      },
      "countryiso3code": "LAC",
      "date": "2022",
      "value": 5393055179435.19,
      "unit": "",
      "obs_status": "",
      "decimal": 0
    },
    {
      "indicator": {
        "id": "NY.GDP.MKTP.CD",
        "value": "GDP (current US$)"
      },
      "country": {
        "id": "T2",
        "value": "Latin America & the Caribbean (IDA & IBRD countries)"
      },
      "countryiso3code": "TLA",
      "date": "2022",
      "value": 6049066571917.19,
      "unit": "",
      "obs_status": "",
      "decimal": 0
    },
    {
      "indicator": {
        "id": "NY.GDP.MKTP.CD",
        "value": "GDP (current US$)"
      },
      "country": {
        "id": "XL",
        "value": "Least developed countries: UN classification"
      },
      "countryiso3code": "LDC",
      "date": "2022",
      "value": 1435846906574.13,
      "unit": "",
      "obs_status": "",
      "decimal": 0
    },
    {
      "indicator": {
        "id": "NY.GDP.MKTP.CD",
        "value": "GDP (current US$)"
      },
      "country": {
        "id": "XO",
        "value": "Low & middle income"
      },
      "countryiso3code": "LMY",
      "date": "2022",
      "value": 36465232446694.9,
      "unit": "",
      "obs_status": "",
      "decimal": 0
    },
    {
      "indicator": {
        "id": "NY.GDP.MKTP.CD",
        "value": "GDP (current US$)"
      },
      "country": {
        "id": "XM",
        "value": "Low income"
      },
      "countryiso3code": "",
      "date": "2022",
      "value": 547199942824.132,
      "unit": "",
      "obs_status": "",
      "decimal": 0
    },
    {
      "indicator": {
        "id": "NY.GDP.MKTP.CD",
        "value": "GDP (current US$)"
      },
      "country": {
        "id": "XN",
        "value": "Lower middle income"
      },
      "countryiso3code": "",
      "date": "2022",
      "value": 7371395678679.62,
      "unit": "",
      "obs_status": "",
      "decimal": 0
    },
    {
      "indicator": {
        "id": "NY.GDP.MKTP.CD",
        "value": "GDP (current US$)"
      },
      "country": {
        "id": "ZQ",
        "value": "Middle East & North Africa"
      },
      "countryiso3code": "MEA",
      "date": "2022",
      "value": 4475708600082.35,
      "unit": "",
      "obs_status": "",
      "decimal": 0
    },
    {
      "indicator": {
        "id": "NY.GDP.MKTP.CD",
        "value": "GDP (current US$)"
      },
      "country": {
        "id": "XQ",
        "value": "Middle East & North Africa (excluding high income)"
      },
      "countryiso3code": "MNA",
      "date": "2022",
      "value": 1741921040109.65,
      "unit": "",
      "obs_status": "",
      "decimal": 0
    },
    {
      "indicator": {
        "id": "NY.GDP.MKTP.CD",
        "value": "GDP (current US$)"
      },
      "country": {
        "id": "T3",
        "value": "Middle East & North Africa (IDA & IBRD countries)"
      },
      "countryiso3code": "TMN",
      "date": "2022",
      "value": 1722755540109.65,
      "unit": "",
      "obs_status": "",
      "decimal": 0
    },
    {
      "indicator": {
        "id": "NY.GDP.MKTP.CD",
        "value": "GDP (current US$)"
      },
      "country": {
        "id": "XP",
        "value": "Middle income"
      },
      "countryiso3code": "MIC",
      "date": "2022",
      "value": 35917683987563.7,
      "unit": "",
      "obs_status": "",
      "decimal": 0
    },
    {
      "indicator": {
        "id": "NY.GDP.MKTP.CD",
        "value": "GDP (current US$)"
      },
      "country": {
        "id": "XU",
        "value": "North America"
      },
      "countryiso3code": "NAC",
      "date": "2022",
      "value": 28176204349422,
      "unit": "",
      "obs_status": "",
      "decimal": 0
    },
    {
      "indicator": {
        "id": "NY.GDP.MKTP.CD",
        "value": "GDP (current US$)"
      },
      "country": {
        "id": "XY",
        "value": "Not classified"
      },
      "countryiso3code": "",
      "date": "2022",
      "value": null,
      "unit": "",
      "obs_status": "",
      "decimal": 0
    },
    {
      "indicator": {
        "id": "NY.GDP.MKTP.CD",
        "value": "GDP (current US$)"
      },
      "country": {
        "id": "OE",
        "value": "OECD members"
      },
      "countryiso3code": "OED",
      "date": "2022",
      "value": 60691333186116.5,
      "unit": "",
      "obs_status": "",
      "decimal": 0
    },
    {
      "indicator": {
        "id": "NY.GDP.MKTP.CD",
        "value": "GDP (current US$)"
      },
      "country": {
        "id": "S4",
        "value": "Other small states"
      },
      "countryiso3code": "OSS",
      "date": "2022",
      "value": 228425738381.928,
      "unit": "",
      "obs_status": "",
      "decimal": 0
    },
    {
      "indicator": {
        "id": "NY.GDP.MKTP.CD",
        "value": "GDP (current US$)"
      },
      "country": {
        "id": "S2",
        "value": "Pacific island small states"
      },
      "countryiso3code": "PSS",
      "date": "2022",
      "value": 10339409999.0409,
      "unit": "",
      "obs_status": "",
      "decimal": 0
    },
    {
      "indicator": {
        "id": "NY.GDP.MKTP.CD",
        "value": "GDP (current US$)"
      },
      "country": {
        "id": "V4",
        "value": "Post-demographic dividend"
      },
      "countryiso3code": "PST",
      "date": "2022",
      "value": 57066750903167.4,
      "unit": "",
      "obs_status": "",
      "decimal": 0
    },
    {
      "indicator": {
        "id": "NY.GDP.MKTP.CD",
        "value": "GDP (current US$)"
      },
      "country": {
        "id": "V1",
        "value": "Pre-demographic dividend"
      },
      "countryiso3code": "PRE",
      "date": "2022",
      "value": 1647527579588.04,
      "unit": "",
      "obs_status": "",
      "decimal": 0
    },
    {
      "indicator": {
        "id": "NY.GDP.MKTP.CD",
        "value": "GDP (current US$)"
      },
      "country": {
        "id": "S1",
        "value": "Small states"
      },
      "countryiso3code": "SST",
      "date": "2022",
      "value": 287505638394.077,
      "unit": "",
      "obs_status": "",
      "decimal": 0
    },
    {
      "indicator": {
        "id": "NY.GDP.MKTP.CD",
        "value": "GDP (current US$)"
      },
      "country": {
        "id": "8S",
        "value": "South Asia"
      },
      "countryiso3code": "SAS",
      "date": "2022",
      "value": 4327392880815.64,
      "unit": "",
      "obs_status": "",
      "decimal": 0
    },
    {
      "indicator": {
        "id": "NY.GDP.MKTP.CD",
        "value": "GDP (current US$)"
      },
      "country": {
        "id": "T5",
        "value": "South Asia (IDA & IBRD)"
      },
      "countryiso3code": "TSA",
      "date": "2022",
      "value": 4327392880815.64,
      "unit": "",
      "obs_status": "",
      "decimal": 0
    },
    {
      "indicator": {
        "id": "NY.GDP.MKTP.CD",
        "value": "GDP (current US$)"
      },
      "country": {
        "id": "ZG",
        "value": "Sub-Saharan Africa"
      },
      "countryiso3code": "SSF",
      "date": "2022",
      "value": 2075397087141.81,
      "unit": "",
      "obs_status": "",
      "decimal": 0
    },
    {
      "indicator": {
        "id": "NY.GDP.MKTP.CD",
        "value": "GDP (current US$)"
      },
      "country": {
        "id": "ZF",
        "value": "Sub-Saharan Africa (excluding high income)"
      },
      "countryiso3code": "SSA",
      "date": "2022",
      "value": 2073339118621.98,
      "unit": "",
      "obs_status": "",
      "decimal": 0
    },
    {
      "indicator": {
        "id": "NY.GDP.MKTP.CD",
        "value": "GDP (current US$)"
      },
      "country": {
        "id": "T6",
        "value": "Sub-Saharan Africa (IDA & IBRD countries)"
      },
      "countryiso3code": "TSS",
      "date": "2022",
      "value": 2075397087141.81,
      "unit": "",
      "obs_status": "",
      "decimal": 0
    },
    {
      "indicator": {
        "id": "NY.GDP.MKTP.CD",
        "value": "GDP (current US$)"
      },
      "country": {
        "id": "XT",
        "value": "Upper middle income"
      },
      "countryiso3code": "",
      "date": "2022",
      "value": 28547068404946.9,
      "unit": "",
      "obs_status": "",
      "decimal": 0
    },
    {
      "indicator": {
        "id": "NY.GDP.MKTP.CD",
        "value": "GDP (current US$)"
      },
      "country": {
        "id": "1W",
        "value": "World"
      },
      "countryiso3code": "WLD",
      "date": "2022",
      "value": 101770911729948,
      "unit": "",
      "obs_status": "",
      "decimal": 0
    },
    {
      "indicator": {
        "id": "NY.GDP.MKTP.CD",
        "value": "GDP (current US$)"
      },
      "country": {
        "id": "AF",
        "value": "Afghanistan"
      },
      "countryiso3code": "AFG",
      "date": "2022",
      "value": 14497243872.1337,
      "unit": "",
      "obs_status": "",
      "decimal": 0
    }
  ]
]