[
  {
    "page": 1,
    "pages": 6,
    "per_page": 50,
    "total": 266,
    "sourceid": "2",
    "lastupdated": "2025-07-01"
  },
  [
    {
      "indicator": {
        "id": "NY.GDP.MKTP.CD",
        "value": "GDP (current US$)"
      },
      "country": {
        "id": "ZH",
        "value": "Africa Eastern and Southern"
      },
      "countryiso3code": "AFE",
      "date": "2022",
      "value": 1191638638185.25,
      "unit": "",
      "obs_status": "",
      "decimal": 0
    },
    {
      "indicator": {
        "id": "NY.GDP.MKTP.CD",
        "value": "GDP (current US$)"
      },
      "country": {
        "id": "ZI",
        "value": "Africa Western and Central"
      },
      "countryiso3code": "AFW",
      "date": "2022",
      "value": 893639944629.861,
      "unit": "",
      "obs_status": "",
      "decimal": 0
    },
    {
      "indicator": {
        "id": "NY.GDP.MKTP.CD",
        "value": "GDP (current US$)"
      },
      "country": {
        "id": "1A",
        "value": "Arab World"
      },
      "countryiso3code": "ARB",
      "date": "2022",
      "value": 3738584480489.16,
      "unit": "",
      "obs_status": "",
      "decimal": 0
    },
    {
      "indicator": {
        "id": "NY.GDP.MKTP.CD",
        "value": "GDP (current US$)"
      },
      "country": {
        "id": "S3",
        "value": "Caribbean small states"
      },
      "countryiso3code": "CSS",
      "date": "2022",
      "value": 78054577760.2976,
      "unit": "",
      "obs_status": "",
      "decimal": 0
    },
    {
      "indicator": {
        "id": "NY.GDP.MKTP.CD",
        "value": "GDP (current US$)"
      },
      "country": {
        "id": "B8",
        "value": "Central Europe and the Baltics"
      },
      "countryiso3code": "CEB",
      "date": "2022",
      "value": 1956274288914.43,
      "unit": "",
      "obs_status": "",
      "decimal": 0
    },
    {
      "indicator": {
        "id": "NY.GDP.MKTP.CD",
        "value": "GDP (current US$)"
      },
      "country": {
        "id": "V2",
        "value": "Early-demographic dividend"
      },
      "countryiso3code": "EAR",
      "date": "2022",
      "value": 14274765147164.7,
      "unit": "",
      "obs_status": "",
      "decimal": 0
    },
    {
      "indicator": {
        "id": "NY.GDP.MKTP.CD",
        "value": "GDP (current US$)"
      },
      "country": {
        "id": "Z4",
        "value": "East Asia & Pacific"
      },
      "countryiso3code": "EAS",
      "date": "2022",
      "value": 31135994741903.4,
      "unit": "",
      "obs_status": "",
      "decimal": 0
    },
    {
      "indicator": {
        "id": "NY.GDP.MKTP.CD",
        "value": "GDP (current US$)"
      },
      "country": {
        "id": "4E",
        "value": "East Asia & Pacific (excluding high income)"
      },
      "countryiso3code": "EAP",
      "date": "2022",
      "value": 21563623056097.7,
      "unit": "",
      "obs_status": "",
      "decimal": 0
    },
    {
      "indicator": {
        "id": "NY.GDP.MKTP.CD",
        "value": "GDP (current US$)"
      },
      "country": {
        "id": "T4",
        "value": "East Asia & Pacific (IDA & IBRD countries)"
      },
      "countryiso3code": "TEA",
      "date": "2022",
      "value": 21536968352300,
      "unit": "",
      "obs_status": "",
      "decimal": 0
    },
    {
      "indicator": {
        "id": "NY.GDP.MKTP.CD",
        "value": "GDP (current US$)"
      },
      "country": {
        "id": "XC",
        "value": "Euro area"
      },
      "countryiso3code": "EMU",
      "date": "2022",
      "value": 14452407617089.9,
      "unit": "",
      "obs_status": "",
      "decimal": 0
    },
    {
      "indicator": {
        "id": "NY.GDP.MKTP.CD",
        "value": "GDP (current US$)"
      },
      "country": {
        "id": "Z7",
        "value": "Europe & Central Asia"
      },
      "countryiso3code": "ECS",
      "date": "2022",
      "value": 25700849227224.2,
      "unit": "",
      "obs_status": "",
      "decimal": 0
    },
    {
      "indicator": {
        "id": "NY.GDP.MKTP.CD",
        "value": "GDP (current US$)"
      },
      "country": {
        "id": "7E",
        "value": "Europe & Central Asia (excluding high income)"
      },
      "countryiso3code": "ECA",
      "date": "2022",
      "value": 1817993344339.27,
      "unit": "",
      "obs_status": "",
      "decimal": 0
    },
    {
      "indicator": {
        "id": "NY.GDP.MKTP.CD",
        "value": "GDP (current US$)"
      },
      "country": {
        "id": "T7",
        "value": "Europe & Central Asia (IDA & IBRD countries)"
      },
      "countryiso3code": "TEC",
      "date": "2022",
      "value": 5263275218883.39,
      "unit": "",
      "obs_status": "",
      "decimal": 0
    },
    {
      "indicator": {
        "id": "NY.GDP.MKTP.CD",
        "value": "GDP (current US$)"
      },
      "country": {
        "id": "EU",
        "value": "European Union"
      },
      "countryiso3code": "EUU",
      "date": "2022",
      "value": 16996087955139.8,
      "unit": "",
      "obs_status": "",
      "decimal": 0
    },
    {
      "indicator": {
        "id": "NY.GDP.MKTP.CD",
        "value": "GDP (current US$)"
      },
      "country": {
        "id": "F1",
        "value": "Fragile and conflict affected situations"
      },
      "countryiso3code": "FCS",
      "date": "2022",
      "value": 1976548078585.54,
      "unit": "",
      "obs_status": "",
      "decimal": 0
    },
    {
      "indicator": {
        "id": "NY.GDP.MKTP.CD",
        "value": "GDP (current US$)"
      },
      "country": {
        "id": "XE",
        "value": "Heavily indebted poor countries (HIPC)"
      },
      "countryiso3code": "HPC",
      "date": "2022",
      "value": 993480176910.217,
      "unit": "",
      "obs_status": "",
      "decimal": 0
    },
    {
      "indicator": {
        "id": "NY.GDP.MKTP.CD",
        "value": "GDP (current US$)"
      },
      "country": {
        "id": "XD",
        "value": "High income"
      },
      "countryiso3code": "",
      "date": "2022",
      "value": 65248657227968.5,
      "unit": "",
      "obs_status": "",
      "decimal": 0
    },
    {
      "indicator": {
        "id": "NY.GDP.MKTP.CD",
        "value": "GDP (current US$)"
      },
      "country": {
        "id": "XF",
        "value": "IBRD only"
      },
      "countryiso3code": "IBD",
      "date": "2022",
      "value": 38173342857338.4,
      "unit": "",
      "obs_status": "",
      "decimal": 0
    },
    {
      "indicator": {
        "id": "NY.GDP.MKTP.CD",
        "value": "GDP (current US$)"
      },
      "country": {
        "id": "ZT",
        "value": "IDA & IBRD total"
      },
      "countryiso3code": "IBT",
      "date": "2022",
      "value": 41067771533155.6,
      "unit": "",
      "obs_status": "",
      "decimal": 0
    },
    {
      "indicator": {
        "id": "NY.GDP.MKTP.CD",
        "value": "GDP (current US$)"
      },
      "country": {
        "id": "XH",
        "value": "IDA blend"
      },
      "countryiso3code": "IDB",
      "date": "2022",
      "value": 1279359771603.06,
      "unit": "",
      "obs_status": "",
      "decimal": 0
    },
    {
      "indicator": {
        "id": "NY.GDP.MKTP.CD",
        "value": "GDP (current US$)"
      },
      "country": {
        "id": "XI",
        "value": "IDA only"
      },
      "countryiso3code": "IDX",
      "date": "2022",
      "value": 1615949723957.34,
      "unit": "",
      "obs_status": "",
      "decimal": 0
    },
    {
      "indicator": {
        "id": "NY.GDP.MKTP.CD",
        "value": "GDP (current US$)"
      },
      "country": {
        "id": "XG",
        "value": "IDA total"
      },
      "countryiso3code": "IDA",
      "date": "2022",
      "value": 2895309495560.39,
      "unit": "",
      "obs_status": "",
      "decimal": 0
    },
    {
      "indicator": {
        "id": "NY.GDP.MKTP.CD",
        "value": "GDP (current US$)"
      },
      "country": {
        "id": "V3",
        "value": "Late-demographic dividend"
      },
      "countryiso3code": "LTE",
      "date": "2022",
      "value": 28540512833862.8,
      "unit": "",
      "obs_status": "",
      "decimal": 0
    },
    {
      "indicator": {
        "id": "NY.GDP.MKTP.CD",
        "value": "GDP (current US$)"
      },
      "country": {
        "id": "ZJ",
        "value": "Latin America & Caribbean"
      },
      "countryiso3code": "LCN",
      "date": "2022",
      "value": 6345587523480.55,
      "unit": "",
      "obs_status": "",
      "decimal": 0
    },
    {
      "indicator": {
        "id": "NY.GDP.MKTP.CD",
        "value": "GDP (current US$)"
      },
      "country": {
        "id": "XJ",
        "value": "Latin America & Caribbean (excluding high income)"
      },
      "countryiso3code": "LAC",
      "date": "2022",
      "value": 5325687016147.01,
      "unit": "",
      "obs_status": "",
      "decimal": 0
    },
    {
      "indicator": {
        "id": "NY.GDP.MKTP.CD",
        "value": "GDP (current US$)"
      },
      "country": {
        "id": "T2",
        "value": "Latin America & the Caribbean (IDA & IBRD countries)"
      },
      "countryiso3code": "TLA",
      "date": "2022",
      "value": 6048473378741.76,
      "unit": "",
      "obs_status": "",
      "decimal": 0
    },
    {
      "indicator": {
        "id": "NY.GDP.MKTP.CD",
        "value": "GDP (current US$)"
      },
      "country": {
        "id": "XL",
        "value": "Least developed countries: UN classification"
      },
      "countryiso3code": "LDC",
      "date": "2022",
      "value": 1445223560465.28,
      "unit": "",
      "obs_status": "",
      "decimal": 0
    },
    {
      "indicator": {
        "id": "NY.GDP.MKTP.CD",
        "value": "GDP (current US$)"
      },
      "country": {
        "id": "XO",
        "value": "Low & middle income"
      },
      "countryiso3code": "LMY",
      "date": "2022",
      "value": 36712853300728.6,
      "unit": "",
      "obs_status": "",
      "decimal": 0
    },
    {
      "indicator": {
        "id": "NY.GDP.MKTP.CD",
        "value": "GDP (current US$)"
      },
      "country": {
        "id": "XM",
        "value": "Low income"
      },
      "countryiso3code": "",
      "date": "2022",
      "value": 427939606203.123,
      "unit": "",
      "obs_status": "",
      "decimal": 0
    },
    {
      "indicator": {
        "id": "NY.GDP.MKTP.CD",
        "value": "GDP (current US$)"
      },
      "country": {
        "id": "XN",
        "value": "Lower middle income"
      },
      "countryiso3code": "",
      "date": "2022",
      "value": 7377558874199.93,
      "unit": "",
      "obs_status": "",
      "decimal": 0
    },
    {
      "indicator": {
        "id": "NY.GDP.MKTP.CD",
        "value": "GDP (current US$)"
      },
      "country": {
        "id": "ZQ",
        "value": "Middle East, North Africa, Afghanistan & Pakistan"
      },
      "countryiso3code": "MEA",
      "date": "2022",
      "value": 4994047685350.32,
      "unit": "",
      "obs_status": "",
      "decimal": 0
    },
    {
      "indicator": {
        "id": "NY.GDP.MKTP.CD",
        "value": "GDP (current US$)"
      },
      "country": {
        "id": "XQ",
        "value": "Middle East, North Africa, Afghanistan & Pakistan (excluding high income)"
      },
      "countryiso3code": "MNA",
      "date": "2022",
      "value": 2132297995335.66,
      "unit": "",
      "obs_status": "",
      "decimal": 0
    },
    {
      "indicator": {
        "id": "NY.GDP.MKTP.CD",
        "value": "GDP (current US$)"
      },
      "country": {
        "id": "T3",
        "value": "Middle East, North Africa, Afghanistan & Pakistan (IDA & IBRD)"
      },
      "countryiso3code": "TMN",
      "date": "2022",
      "value": 2113132495335.66,
      "unit": "",
      "obs_status": "",
      "decimal": 0
    },
    {
      "indicator": {
        "id": "NY.GDP.MKTP.CD",
        "value": "GDP (current US$)"
      },
      "country": {
        "id": "XP",
        "value": "Middle income"
      },
      "countryiso3code": "MIC",
      "date": "2022",
      "value": 36282529025324.2,
      "unit": "",
      "obs_status": "",
      "decimal": 0
    },
    {
      "indicator": {
        "id": "NY.GDP.MKTP.CD",
        "value": "GDP (current US$)"
      },
      "country": {
        "id": "XU",
        "value": "North America"
      },
      "countryiso3code": "NAC",
      "date": "2022",
      "value": 28205178461134.3,
      "unit": "",
      "obs_status": "",
      "decimal": 0
    },
    {
      "indicator": {
        "id": "NY.GDP.MKTP.CD",
        "value": "GDP (current US$)"
      },
      "country": {
        "id": "XY",
        "value": "Not classified"
      },
      "countryiso3code": "",
      "date": "2022",
      "value": null,
      "unit": "",
      "obs_status": "",
      "decimal": 0
    },
    {
      "indicator": {
        "id": "NY.GDP.MKTP.CD",
        "value": "GDP (current US$)"
      },
      "country": {
        "id": "OE",
        "value": "OECD members"
      },
      "countryiso3code": "OED",
      "date": "2022",
      "value": 60744315658542.2,
      "unit": "",
      "obs_status": "",
      "decimal": 0
    },
    {
      "indicator": {
        "id": "NY.GDP.MKTP.CD",
        "value": "GDP (current US$)"
      },
      "country": {
        "id": "S4",
        "value": "Other small states"
      },
      "countryiso3code": "OSS",
      "date": "2022",
      "value": 181571679219.508,
      "unit": "",
      "obs_status": "",
      "decimal": 0
    },
    {
      "indicator": {
        "id": "NY.GDP.MKTP.CD",
        "value": "GDP (current US$)"
      },
      "country": {
        "id": "S2",
        "value": "Pacific island small states"
      },
      "countryiso3code": "PSS",
      "date": "2022",
      "value": 10328388317.1998,
      "unit": "",
      "obs_status": "",
      "decimal": 0
    },
    {
      "indicator": {
        "id": "NY.GDP.MKTP.CD",
        "value": "GDP (current US$)"
      },
      "country": {
        "id": "V4",
        "value": "Post-demographic dividend"
      },
      "countryiso3code": "PST",
      "date": "2022",
      "value": 57128680173110.1,
      "unit": "",
      "obs_status": "",
      "decimal": 0
    },
    {
      "indicator": {
        "id": "NY.GDP.MKTP.CD",
        "value": "GDP (current US$)"
      },
      "country": {
        "id": "V1",
        "value": "Pre-demographic dividend"
      },
      "countryiso3code": "PRE",
      "date": "2022",
      "value": 1658497791360.45,
      "unit": "",
      "obs_status": "",
      "decimal": 0
    },
    {
      "indicator": {
        "id": "NY.GDP.MKTP.CD",
        "value": "GDP (current US$)"
      },
      "country": {
        "id": "S1",
        "value": "Small states"
      },
      "countryiso3code": "SST",
      "date": "2022",
      "value": 269954645297.005,
      "unit": "",
      "obs_status": "",
      "decimal": 0
    },
    {
      "indicator": {
        "id": "NY.GDP.MKTP.CD",
        "value": "GDP (current US$)"
      },
      "country": {
        "id": "8S",
        "value": "South Asia"
      },
      "countryiso3code": "SAS",
      "date": "2022",
      "value": 3930640282535.14,
      "unit": "",
      "obs_status": "",
      "decimal": 0
    },
    {
      "indicator": {
        "id": "NY.GDP.MKTP.CD",
        "value": "GDP (current US$)"
      },
      "country": {
        "id": "T5",
        "value": "South Asia (IDA & IBRD)"
      },
      "countryiso3code": "TSA",
      "date": "2022",
      "value": 3930640282535.14,
      "unit": "",
      "obs_status": "",
      "decimal": 0
    },
    {
      "indicator": {
        "id": "NY.GDP.MKTP.CD",
        "value": "GDP (current US$)"
      },
      "country": {
        "id": "ZG",
        "value": "Sub-Saharan Africa"
      },
      "countryiso3code": "SSF",
      "date": "2022",
      "value": 2085278582815.11,
      "unit": "",
      "obs_status": "",
      "decimal": 0
    },
    {
      "indicator": {
        "id": "NY.GDP.MKTP.CD",
        "value": "GDP (current US$)"
      },
      "country": {
        "id": "ZF",
        "value": "Sub-Saharan Africa (excluding high income)"
      },
      "countryiso3code": "SSA",
      "date": "2022",
      "value": 1956487528375.04,
      "unit": "",
      "obs_status": "",
      "decimal": 0
    },
    {
      "indicator": {
        "id": "NY.GDP.MKTP.CD",
        "value": "GDP (current US$)"
      },
      "country": {
        "id": "T6",
        "value": "Sub-Saharan Africa (IDA & IBRD countries)"
      },
      "countryiso3code": "TSS",
      "date": "2022",
      "value": 2085278582815.11,
      "unit": "",
      "obs_status": "",
      "decimal": 0
    },
    {
      "indicator": {
        "id": "NY.GDP.MKTP.CD",
        "value": "GDP (current US$)"
      },
      "country": {
        "id": "XT",
        "value": "Upper middle income"
      },
      "countryiso3code": "",
      "date": "2022",
      "value": 28905818138526.2,
      "unit": "",
      "obs_status": "",
      "decimal": 0
    },
    {
      "indicator": {
        "id": "NY.GDP.MKTP.CD",
        "value": "GDP (current US$)"
      },
      "country": {
        "id": "1W",
        "value": "World"
      },
      "countryiso3code": "WLD",
      "date": "2022",
      "value": 102434886179161,
      "unit": "",
      "obs_status": "",
      "decimal": 0
    },
    {
      "indicator": {
        "id": "NY.GDP.MKTP.CD",
        "value": "GDP (current US$)"
      },
      "country": {
        "id": "AF",
        "value": "Afghanistan"
      },
      "countryiso3code": "AFG",
      "date": "2022",
      "value": 14497243872.1337,
      "unit": "",
      "obs_status": "",
      "decimal": 0
    }
  ]
]